%YAML 1.1
%TAG !u! tag:unity3d.com,2011:
--- !u!74 &7400000
AnimationClip:
  m_ObjectHideFlags: 0
  m_CorrespondingSourceObject: {fileID: 0}
  m_PrefabInstance: {fileID: 0}
  m_PrefabAsset: {fileID: 0}
  m_Name: normalPortalActive
  serializedVersion: 6
  m_Legacy: 0
  m_Compressed: 0
  m_UseHighQualityCurve: 1
  m_RotationCurves: []
  m_CompressedRotationCurves: []
  m_EulerCurves: []
  m_PositionCurves: []
  m_ScaleCurves: []
  m_FloatCurves: []
  m_PPtrCurves:
  - curve:
    - time: 0
      value: {fileID: 1105725324285458, guid: b1ab23b9b302353429612b60098dc417, type: 3}
    - time: 0.023809524
      value: {fileID: 2286546951202179648, guid: b1ab23b9b302353429612b60098dc417,
        type: 3}
    - time: 0.04761905
      value: {fileID: -757232104844479815, guid: b1ab23b9b302353429612b60098dc417,
        type: 3}
    - time: 0.071428575
      value: {fileID: 8658979113985554073, guid: b1ab23b9b302353429612b60098dc417,
        type: 3}
    - time: 0.0952381
      value: {fileID: 7138879873633947466, guid: b1ab23b9b302353429612b60098dc417,
        type: 3}
    - time: 0.11904762
      value: {fileID: -9005090285363535311, guid: b1ab23b9b302353429612b60098dc417,
        type: 3}
    - time: 0.14285715
      value: {fileID: -5847379302808688759, guid: b1ab23b9b302353429612b60098dc417,
        type: 3}
    - time: 0.16666667
      value: {fileID: 8151543472087827344, guid: b1ab23b9b302353429612b60098dc417,
        type: 3}
    - time: 0.1904762
      value: {fileID: 5931816785759648911, guid: b1ab23b9b302353429612b60098dc417,
        type: 3}
    - time: 0.21428572
      value: {fileID: 4334381480510018124, guid: b1ab23b9b302353429612b60098dc417,
        type: 3}
    - time: 0.23809524
      value: {fileID: -2746271650633789157, guid: b1ab23b9b302353429612b60098dc417,
        type: 3}
    - time: 0.26190478
      value: {fileID: 1354379143857414890, guid: b1ab23b9b302353429612b60098dc417,
        type: 3}
    - time: 0.2857143
      value: {fileID: 6450917085054980229, guid: b1ab23b9b302353429612b60098dc417,
        type: 3}
    - time: 0.30952382
      value: {fileID: 1947932030553006127, guid: b1ab23b9b302353429612b60098dc417,
        type: 3}
    - time: 0.33333334
      value: {fileID: 596997224397305727, guid: b1ab23b9b302353429612b60098dc417,
        type: 3}
    - time: 0.35714287
      value: {fileID: -1413010263082542534, guid: b1ab23b9b302353429612b60098dc417,
        type: 3}
    - time: 0.3809524
      value: {fileID: -10344172921823213, guid: b1ab23b9b302353429612b60098dc417,
        type: 3}
    - time: 0.4047619
      value: {fileID: 7909567982498639318, guid: b1ab23b9b302353429612b60098dc417,
        type: 3}
    - time: 0.42857143
      value: {fileID: 6558814268780492111, guid: b1ab23b9b302353429612b60098dc417,
        type: 3}
    - time: 0.45238096
      value: {fileID: -5114327144669840720, guid: b1ab23b9b302353429612b60098dc417,
        type: 3}
    - time: 0.47619048
      value: {fileID: -341389262304749095, guid: b1ab23b9b302353429612b60098dc417,
        type: 3}
    - time: 0.4920635
      value: {fileID: 4539165418927820739, guid: b1ab23b9b302353429612b60098dc417,
        type: 3}
    - time: 0.52380955
      value: {fileID: 7097551181120593615, guid: b1ab23b9b302353429612b60098dc417,
        type: 3}
    - time: 0.54761904
      value: {fileID: 6431698702555684442, guid: b1ab23b9b302353429612b60098dc417,
        type: 3}
    - time: 0.5714286
      value: {fileID: -7227233935382174301, guid: b1ab23b9b302353429612b60098dc417,
        type: 3}
    - time: 0.5952381
      value: {fileID: 2137381584095998566, guid: b1ab23b9b302353429612b60098dc417,
        type: 3}
    - time: 0.61904764
      value: {fileID: -2076196292869234155, guid: b1ab23b9b302353429612b60098dc417,
        type: 3}
    - time: 0.64285713
      value: {fileID: 5709616776312862524, guid: b1ab23b9b302353429612b60098dc417,
        type: 3}
    - time: 0.6666667
      value: {fileID: -2684116080306920893, guid: b1ab23b9b302353429612b60098dc417,
        type: 3}
    - time: 0.6904762
      value: {fileID: 4627269694545618445, guid: b1ab23b9b302353429612b60098dc417,
        type: 3}
    - time: 0.71428573
      value: {fileID: -1402285766325039392, guid: b1ab23b9b302353429612b60098dc417,
        type: 3}
    - time: 0.7380952
      value: {fileID: 2311416547913369188, guid: b1ab23b9b302353429612b60098dc417,
        type: 3}
    - time: 0.7619048
      value: {fileID: -5672299702334605598, guid: b1ab23b9b302353429612b60098dc417,
        type: 3}
    - time: 0.78571427
      value: {fileID: 8696237347053792059, guid: b1ab23b9b302353429612b60098dc417,
        type: 3}
    - time: 0.8095238
      value: {fileID: -4124200253975785140, guid: b1ab23b9b302353429612b60098dc417,
        type: 3}
    - time: 0.8333333
      value: {fileID: -274657055804433750, guid: b1ab23b9b302353429612b60098dc417,
        type: 3}
    - time: 0.85714287
      value: {fileID: 9201624329627637898, guid: b1ab23b9b302353429612b60098dc417,
        type: 3}
    - time: 0.88095236
      value: {fileID: -7035497274009299508, guid: b1ab23b9b302353429612b60098dc417,
        type: 3}
    - time: 0.9047619
      value: {fileID: -2735286210334041084, guid: b1ab23b9b302353429612b60098dc417,
        type: 3}
    - time: 0.9285714
      value: {fileID: -8229809101201608612, guid: b1ab23b9b302353429612b60098dc417,
        type: 3}
    - time: 0.95238096
      value: {fileID: 3811486214787208902, guid: b1ab23b9b302353429612b60098dc417,
        type: 3}
    - time: 0.97619045
      value: {fileID: 3569269295851504516, guid: b1ab23b9b302353429612b60098dc417,
        type: 3}
    - time: 1
      value: {fileID: -8768418872084369848, guid: d71011b95992dc7459250e9a68689976,
        type: 3}
    attribute: m_Sprite
    path: 
    classID: 212
    script: {fileID: 0}
  m_SampleRate: 126
  m_WrapMode: 0
  m_Bounds:
    m_Center: {x: 0, y: 0, z: 0}
    m_Extent: {x: 0, y: 0, z: 0}
  m_ClipBindingConstant:
    genericBindings:
    - serializedVersion: 2
      path: 0
      attribute: 0
      script: {fileID: 0}
      typeID: 212
      customType: 23
      isPPtrCurve: 1
    pptrCurveMapping:
    - {fileID: 1105725324285458, guid: b1ab23b9b302353429612b60098dc417, type: 3}
    - {fileID: 2286546951202179648, guid: b1ab23b9b302353429612b60098dc417, type: 3}
    - {fileID: -757232104844479815, guid: b1ab23b9b302353429612b60098dc417, type: 3}
    - {fileID: 8658979113985554073, guid: b1ab23b9b302353429612b60098dc417, type: 3}
    - {fileID: 7138879873633947466, guid: b1ab23b9b302353429612b60098dc417, type: 3}
    - {fileID: -9005090285363535311, guid: b1ab23b9b302353429612b60098dc417, type: 3}
    - {fileID: -5847379302808688759, guid: b1ab23b9b302353429612b60098dc417, type: 3}
    - {fileID: 8151543472087827344, guid: b1ab23b9b302353429612b60098dc417, type: 3}
    - {fileID: 5931816785759648911, guid: b1ab23b9b302353429612b60098dc417, type: 3}
    - {fileID: 4334381480510018124, guid: b1ab23b9b302353429612b60098dc417, type: 3}
    - {fileID: -2746271650633789157, guid: b1ab23b9b302353429612b60098dc417, type: 3}
    - {fileID: 1354379143857414890, guid: b1ab23b9b302353429612b60098dc417, type: 3}
    - {fileID: 6450917085054980229, guid: b1ab23b9b302353429612b60098dc417, type: 3}
    - {fileID: 1947932030553006127, guid: b1ab23b9b302353429612b60098dc417, type: 3}
    - {fileID: 596997224397305727, guid: b1ab23b9b302353429612b60098dc417, type: 3}
    - {fileID: -1413010263082542534, guid: b1ab23b9b302353429612b60098dc417, type: 3}
    - {fileID: -10344172921823213, guid: b1ab23b9b302353429612b60098dc417, type: 3}
    - {fileID: 7909567982498639318, guid: b1ab23b9b302353429612b60098dc417, type: 3}
    - {fileID: 6558814268780492111, guid: b1ab23b9b302353429612b60098dc417, type: 3}
    - {fileID: -5114327144669840720, guid: b1ab23b9b302353429612b60098dc417, type: 3}
    - {fileID: -341389262304749095, guid: b1ab23b9b302353429612b60098dc417, type: 3}
    - {fileID: 4539165418927820739, guid: b1ab23b9b302353429612b60098dc417, type: 3}
    - {fileID: 7097551181120593615, guid: b1ab23b9b302353429612b60098dc417, type: 3}
    - {fileID: 6431698702555684442, guid: b1ab23b9b302353429612b60098dc417, type: 3}
    - {fileID: -7227233935382174301, guid: b1ab23b9b302353429612b60098dc417, type: 3}
    - {fileID: 2137381584095998566, guid: b1ab23b9b302353429612b60098dc417, type: 3}
    - {fileID: -2076196292869234155, guid: b1ab23b9b302353429612b60098dc417, type: 3}
    - {fileID: 5709616776312862524, guid: b1ab23b9b302353429612b60098dc417, type: 3}
    - {fileID: -2684116080306920893, guid: b1ab23b9b302353429612b60098dc417, type: 3}
    - {fileID: 4627269694545618445, guid: b1ab23b9b302353429612b60098dc417, type: 3}
    - {fileID: -1402285766325039392, guid: b1ab23b9b302353429612b60098dc417, type: 3}
    - {fileID: 2311416547913369188, guid: b1ab23b9b302353429612b60098dc417, type: 3}
    - {fileID: -5672299702334605598, guid: b1ab23b9b302353429612b60098dc417, type: 3}
    - {fileID: 8696237347053792059, guid: b1ab23b9b302353429612b60098dc417, type: 3}
    - {fileID: -4124200253975785140, guid: b1ab23b9b302353429612b60098dc417, type: 3}
    - {fileID: -274657055804433750, guid: b1ab23b9b302353429612b60098dc417, type: 3}
    - {fileID: 9201624329627637898, guid: b1ab23b9b302353429612b60098dc417, type: 3}
    - {fileID: -7035497274009299508, guid: b1ab23b9b302353429612b60098dc417, type: 3}
    - {fileID: -2735286210334041084, guid: b1ab23b9b302353429612b60098dc417, type: 3}
    - {fileID: -8229809101201608612, guid: b1ab23b9b302353429612b60098dc417, type: 3}
    - {fileID: 3811486214787208902, guid: b1ab23b9b302353429612b60098dc417, type: 3}
    - {fileID: 3569269295851504516, guid: b1ab23b9b302353429612b60098dc417, type: 3}
    - {fileID: -8768418872084369848, guid: d71011b95992dc7459250e9a68689976, type: 3}
  m_AnimationClipSettings:
    serializedVersion: 2
    m_AdditiveReferencePoseClip: {fileID: 0}
    m_AdditiveReferencePoseTime: 0
    m_StartTime: 0
    m_StopTime: 1.0079365
    m_OrientationOffsetY: 0
    m_Level: 0
    m_CycleOffset: 0
    m_HasAdditiveReferencePose: 0
    m_LoopTime: 1
    m_LoopBlend: 0
    m_LoopBlendOrientation: 0
    m_LoopBlendPositionY: 0
    m_LoopBlendPositionXZ: 0
    m_KeepOriginalOrientation: 0
    m_KeepOriginalPositionY: 1
    m_KeepOriginalPositionXZ: 0
    m_HeightFromFeet: 0
    m_Mirror: 0
  m_EditorCurves: []
  m_EulerEditorCurves: []
  m_HasGenericRootTransform: 0
  m_HasMotionFloatCurves: 0
  m_Events: []
